…
Or, just download the data to disk from the data folder in this
repository.

## Example

This is a basic example which shows you how to access a transcript
dataset:

``` r
library(startrek)
library(tibble)

as_tibble(tng$`The Inner Light`)
#> # A tibble: 410 x 5
#>    perspective     setting            character description line           
#>    <chr>           <chr>              <chr>     <chr>       <chr>          
#>  1 3 EXT. SPACE -… at warp.           PICARD (… <NA>        Captain's log,…
#>  2 4 INT. BRIDGE   PICARD, RIKER, DA… PICARD    <NA>        The last time …
#>  3 4 INT. BRIDGE   PICARD, RIKER, DA… GEORDI    <NA>        Nine hours... ?
#>  4 4 INT. BRIDGE   PICARD, RIKER, DA… PICARD    <NA>        "The entire \"…
#>  5 4 INT. BRIDGE   PICARD, RIKER, DA… RIKER     <NA>        That's a littl…
#>  6 4 INT. BRIDGE   PICARD, RIKER, DA… PICARD    <NA>        And for me... …
#>  7 4 CONTINUED:    PICARD, RIKER, DA… WORF      <NA>        Sir, sensors d…
#>  8 4 CONTINUED:    PICARD, RIKER, DA… PICARD    <NA>        On screen.     
#>  9 5 ANGLE - VIEW… An alien object o… PICARD    <NA>        Magnify.       
#> 10 5 ANGLE - VIEW… The object spring… PICARD    <NA>        Mister Data?   
#> # … with 400 more rows
```
…
